<?xml version="1.0" standalone="no"?>
<!DOCTYPE svg PUBLIC "-//W3C//DTD SVG 20010904//EN"
 "http://www.w3.org/TR/2001/REC-SVG-20010904/DTD/svg10.dtd">
<svg version="1.0" xmlns="http://www.w3.org/2000/svg"
 width="260.000000pt" height="260.000000pt" viewBox="0 0 260.000000 260.000000"
 preserveAspectRatio="xMidYMid meet">
<metadata>
Created by potrace 1.11, written by Peter Selinger 2001-2013
</metadata>
<g transform="translate(0.000000,260.000000) scale(0.100000,-0.100000)"
fill="#000000" stroke="none">
<path d="M5 2588 c-3 -7 -4 -591 -3 -1298 l3 -1285 1295 0 1295 0 0 1295 0
1295 -1293 3 c-1029 2 -1294 0 -1297 -10z m1075 -941 c62 -32 94 -90 94 -172
-1 -82 -36 -149 -132 -247 l-75 -78 106 0 107 0 0 -65 0 -65 -207 2 -208 3 -9
47 -9 48 101 104 c55 57 115 125 131 152 37 58 41 114 11 144 -28 28 -92 30
-143 4 -22 -12 -28 -12 -32 -2 -22 60 -35 101 -33 103 2 1 18 10 36 19 79 41
185 41 262 3z m482 2 c102 -52 106 -198 9 -270 l-30 -22 38 -25 c64 -41 86
-98 69 -177 -12 -58 -62 -108 -131 -131 -59 -20 -181 -15 -238 9 l-37 15 12
50 c6 28 14 53 17 56 3 4 32 0 64 -9 91 -23 155 1 155 59 0 51 -28 70 -111 74
l-69 4 0 63 0 63 55 4 c69 6 109 33 113 76 6 56 -74 81 -153 48 l-35 -15 -10
42 c-6 23 -13 49 -16 58 -3 11 5 20 23 28 84 34 207 34 275 0z m-892 -304 l0
-325 -80 0 -80 0 0 234 0 235 -55 -19 c-42 -14 -57 -16 -60 -7 -16 42 -34 112
-30 116 18 17 227 90 263 90 l42 1 0 -325z m1458 138 l2 -183 40 0 40 0 0 -65
0 -65 -40 0 -40 0 0 -75 0 -75 -80 0 -80 0 0 75 0 75 -125 0 c-69 0 -125 1
-125 3 0 2 -5 29 -10 60 l-11 56 84 133 c46 73 101 159 121 191 l37 58 92 -3
92 -3 3 -182z"/>
<path d="M1908 1406 l-56 -101 55 -3 c30 -2 57 -1 59 1 3 2 3 49 2 104 l-3
100 -57 -101z"/>
</g>
</svg>
